{
  "setOfFigures": [
    {
      "name": "Jack The Ripper",
      "country": "Engeland",
      "height": 1.0,
      "kills": 16,
      "gender": "Male",
      "birthdate": "1975-01-01"
    },
    {
      "name": "Adolf Hitler",
      "country": "Germany",
      "height": 1.75,
      "kills": 20946000,
      "gender": "Male",
      "birthdate": "1889-04-20"
    },
    {
      "name": "Muhammed Ali",
      "country": "America",
      "height": 1.91,
      "kills": 0,
      "gender": "Male",
      "birthdate": "1942-01-17"
    },
    {
      "name": "Miyamoto Musashi",
      "country": "Japan",
      "height": 1.84,
      "kills": 60,
      "gender": "Male",
      "birthdate": "1584-01-01"
    },
    {
      "name": "Napoleon",
      "country": "France",
      "height": 1.68,
      "kills": 5000000,
      "gender": "Male",
      "birthdate": "1769-08-15"
    },
    {
      "name": "Ramses 2",
      "country": "Egypt",
      "height": 1.75,
      "kills": 100,
      "gender": "Male",
      "birthdate": "-1303-01-01"
    },
    {
      "name": "Julius Caesar",
      "country": "Italie",
      "height": 1.7,
      "kills": 2000000,
      "gender": "Male",
      "birthdate": "-0100-07-12"
    },
    {
      "name": "Nikola Tesla",
      "country": "America",
      "height": 1.88,
      "kills": 0,
      "gender": "Male",
      "birthdate": "1856-07-10"
    },
    {
      "name": "Elizabeth 2",
      "country": "Engeland",
      "height": 1.62,
      "kills": 1000000,
      "gender": "Female",
      "birthdate": "1926-04-21"
    },
    {
      "name": "Blackbeard",
      "country": "Engeland",
      "height": 1.82,
      "kills": 0,
      "gender": "Male",
      "birthdate": "1680-01-01"
    },
    {
      "name": "Isaac Newton",
      "country": "Spain",
      "height": 1.68,
      "kills": 0,
      "gender": "Male",
      "birthdate": "1643-01-04"
    },
    {
      "name": "Lü Bu",
      "country": "China",
      "height": 2.08,
      "kills": 34000000,
      "gender": "Male",
      "birthdate": "0160-01-01"
    },
    {
      "name": "Martin Luther King",
      "country": "America",
      "height": 1.69,
      "kills": 0,
      "gender": "Male",
      "birthdate": "1929-01-15"
    },
    {
      "name": "Albert Einstein",
      "country": "America",
      "height": 1.7,
      "kills": 0,
      "gender": "Male",
      "birthdate": "1879-03-14"
    },
    {
      "name": "Osama Bin Laden",
      "country": "Pakistan",
      "height": 1.95,
      "kills": 3000,
      "gender": "Male",
      "birthdate": "1957-03-10"
    }
  ]
}